color;code
"цвет не указан";cvet_ne_ukazan
черный;chernyj
"от 60 до 68 см";ot_60_do_68_sm
"от 68 до 78 см";ot_68_do_78_sm
"от 78 до 88 см";ot_78_do_88_sm
"от 88 до 98 см";ot_88_do_98_sm
красный;krasnyj
розовый;rozovyj
леопард;leopard
белый;belyj
ярко-розовый;yarko-rozovyj
фиолетовый;fioletovyj
"красный с белым";krasnyj_s_belym
"белый с черным";belyj_s_chernym
желтый;zheltyj
"черный с белым";chernyj_s_belym
голубой;goluboj
"черный с красным";chernyj_s_krasnym
"белый с розовым";belyj_s_rozovym
"черный с розовым";chernyj_s_rozovym
"белый с красным";belyj_s_krasnym
"голубой с белым";goluboj_s_belym
"красный с черным";krasnyj_s_chernym
"черный с золотым";chernyj_s_zolotym
"черный с голубым";chernyj_s_golubym
"черный с желтым";chernyj_s_zheltym
аква;akva
"синий с белым";sinij_s_belym
телесный;telesnyj
зеленый;zelenyj
прозрачный;prozrachnyj
синий;sinij
коричневый;korichnevyj
серебро;serebro
разноцветный;raznocvetnyj
аква/белый;akva_belyj
"Белый-Серебрянные Полоски";belyj-serebryannye_poloski
земляника;zemlyanika
"Взбитые сливки/Шоколад";vzbitye_slivki_shokolad
"зеленый лимон/черный";zelenyj_limon_chernyj
бордовый;bordovyj
"белый с золотым";belyj_s_zolotym
золотой;zolotoj
"зеленая прохлада/белый";zelenaya_prohlada_belyj
"зеленый камуфляж";zelenyj_kamuflyazh
желтый/белый;zheltyj_belyj
"металлик золото";metallik_zoloto
"белый-серебрянные звезды";belyj-serebryannye_zvezdy
"крупн.сетка белый/белый";krupn_setka_belyj_belyj
"крупн.сетка черный/черный";krupn_setka_chernyj_chernyj
абрикос;abrikos
"металлик золото/черный";metallik_zoloto_chernyj
"мелк.сетка, оранжевый/черный";melk_setka__oranzhevyj_chernyj
"оранжевый с черным";oranzhevyj_s_chernym
"синий василек";sinij_vasilek
шоколад;shokolad
фуксия/черный;fuksiya_chernyj
"металлик синий/черный";metallik_sinij_chernyj
аква/черный;akva_chernyj
мелк.сетка,красная/черный;melk_setka_krasnaya_chernyj
"мелк.сетка,синий васелек/синий васелек";melk_setka_sinij_vaselek_sinij_vaselek
"сирень/тропический розовый";siren_tropicheskij_rozovyj
"белый/синий васелек";belyj_sinij_vaselek
"розовый с голубым";rozovyj_s_golubym
сирень/фуксия;siren_fuksiya
"белый/горячий розовый";belyj_goryachij_rozovyj
"черный с бежевым";chernyj_s_bezhevym
"синий васелек/желтый";sinij_vaselek_zheltyj
"сиреневый с белым";sirenevyj_s_belym
"фиолетовый с белым";fioletovyj_s_belym
сирень;siren
белый/оранжевый;belyj_oranzhevyj
"голубой лед/синий василек";goluboj_led_sinij_vasilek
яблоко;yabloko
мелк.сетка,оранжевая/оранжевый;melk_setka_oranzhevaya_oranzhevyj
"крупная сетка черная/аква";krupnaya_setka_chernaya_akva
виноград;vinograd
"горячий розовый";goryachij_rozovyj
фуксия;fuksiya
сирень/черный;siren_chernyj
"металлик красный";metallik_krasnyj
"аква/белый/синий василек";akva_belyj_sinij_vasilek
фуксия/аква/белый;fuksiya_akva_belyj
"мелк.сетка,синий васелек/черный";melk_setka_sinij_vaselek_chernyj
"крупная сетка черная/красный";krupnaya_setka_chernaya_krasnyj
белый/желтый;belyj_zheltyj
"синий василек/белый";sinij_vasilek_belyj
сафари;safari
сливки/шоколад;slivki_shokolad
"сетка розовая/сетка фуксия";setka_rozovaya_setka_fuksiya
"сетка черная/сетка черная";setka_chernaya_setka_chernaya
"мелк,сетка оранжевая/белый";melk_setka_oranzhevaya_belyj
"голубой лед";goluboj_led
ананас;ananas
кокос;kokos
банан;banan
клубника;klubnika
цветочный;cvetochnyj
"металлик серебро";metallik_serebro
лазурный;lazurnyj
аква/желтый;akva_zheltyj
фиолетовый/желтый;fioletovyj_zheltyj
белый/фуксия;belyj_fuksiya
"крупная сетка белый/черный";krupnaya_setka_belyj_chernyj
"крупная сетка белый/фиолетовый";krupnaya_setka_belyj_fioletovyj
"крупная сетка белый/аква";krupnaya_setka_belyj_akva
белый/аква;belyj_akva
зебра;zebra
оранжевый;oranzhevyj
бирюзовый;biryuzovyj
"фиолетовый с черным";fioletovyj_s_chernym
желтый/фиолетовый;zheltyj_fioletovyj
"малиновый с черным";malinovyj_s_chernym
оранжевый/желтый;oranzhevyj_zheltyj
лазурный/лазурный/белый;lazurnyj_lazurnyj_belyj
"розовый Голливуд/белый";rozovyj_gollivud_belyj
"горячий розовый/черный";goryachij_rozovyj_chernyj
"желтый/горячий розовый";zheltyj_goryachij_rozovyj
"горячий розовый/белый";goryachij_rozovyj_belyj
"зеленые мальдивы/желтый";zelenye_maldivy_zheltyj
"розовый Голливуд/лазурный";rozovyj_gollivud_lazurnyj
"зеленые мальдивы";zelenye_maldivy
серый;seryj
вишня;vishnya
"зеленый лимон/белый";zelenyj_limon_belyj
светло-бордовый;svetlo-bordovyj
светло-бронзовый;svetlo-bronzovyj
"зеленые мальдивы/белый";zelenye_maldivy_belyj
бежевый;bezhevyj
"бежевый с розовым";bezhevyj_s_rozovym
"белый с голубым";belyj_s_golubym
Светло-сиреневый;svetlo-sirenevyj
сливовый;slivovyj
"черный с фиолетовым";chernyj_s_fioletovym
лиловый;lilovyj
желтый;zheltyj
розовый;rozovyj
"черный с розовым";chernyj_s_rozovym
молочный;molochnyj
фиолетовый;fioletovyj
"черный с леопардовым";chernyj_s_leopardovym
"серый с черным";seryj_s_chernym
"розовый с черным";rozovyj_s_chernym
синий;sinij
персиковый;persikovyj
"розовый с черным";rozovyj_s_chernym
мятный;myatnyj
розовый;rozovyj
оливковый/коричневый;olivkovyj_korichnevyj
"сиреневый с фиолетовым";sirenevyj_s_fioletovym
оловянный;olovyannyj
розовый;rozovyj
сирень;siren
"серый с сиреневым";seryj_s_sirenevym
"фиолетовый с розовым";fioletovyj_s_rozovym
"синий с черным";sinij_s_chernym
"салатовый с черным";salatovyj_s_chernym
"желтый с черным";zheltyj_s_chernym
"розовый с черным";rozovyj_s_chernym
"розовый с коричневым";rozovyj_s_korichnevym
"черный с бордовым";chernyj_s_bordovym
"малиновый с голубым";malinovyj_s_golubym
"голубой с черным";goluboj_s_chernym
салатовый;salatovyj
изумрудный;izumrudnyj
"молочный с черным";molochnyj_s_chernym
сиреневый;sirenevyj
розовый;rozovyj
жемчужный;zhemchuzhnyj
бирюзовый;biryuzovyj
"оливковый с красным";olivkovyj_s_krasnym
"черный с малиновым";chernyj_s_malinovym
сиреневый;sirenevyj
светло-зеленый;svetlo-zelenyj
светло-фиолетовый;svetlo-fioletovyj
"розовый с красным";rozovyj_s_krasnym
платиновый;platinovyj
"розовый с черным";rozovyj_s_chernym
"зеленый с черным";zelenyj_s_chernym
коричневый/шоколад;korichnevyj_shokolad
"розовый с белым";rozovyj_s_belym
зеленый;zelenyj
"красный с розовым";krasnyj_s_rozovym
"зеленый с черным";zelenyj_s_chernym
салатовый;salatovyj
синий;sinij
нежно-розовый;nezhno-rozovyj
малиновый;malinovyj
"золото с черным";zoloto_s_chernym
зеленый;zelenyj
"белый с зеленым";belyj_s_zelenym
"нежно голубой с белым";nezhno_goluboj_s_belym
"черный с бирюзовым";chernyj_s_biryuzovym
сиренево-розовый;sirenevo-rozovyj
кремово-розовый;kremovo-rozovyj
"персиковый с черным";persikovyj_s_chernym
"серый с розовым";seryj_s_rozovym
"черный и красный/леопард";chernyj_i_krasnyj_leopard
"черный с синим";chernyj_s_sinim
"черный с лимонным";chernyj_s_limonnym
"нежно розовый с черным";nezhno_rozovyj_s_chernym
бронзовый;bronzovyj
"бронзовый с черным";bronzovyj_s_chernym
темно-синий/черный;temno-sinij_chernyj
лимонный;limonnyj
"белый с сиреневым";belyj_s_sirenevym
розовый;rozovyj
телесный;telesnyj
"голубой с розовым";goluboj_s_rozovym
"розовый с бледно-розовым";rozovyj_s_bledno-rozovym
золото;zoloto
"розовый леопард";rozovyj_leopard
"серебристый с черным";serebristyj_s_chernym
темно-синий;temno-sinij
"розовый перламутр";rozovyj_perlamutr
кофейный;kofejnyj
дымчатый;dymchatyj
розовый;rozovyj
"изумрудный с черным";izumrudnyj_s_chernym
сливовый;slivovyj
"черный с серебристым";chernyj_s_serebristym
"фиолетовый с серебром";fioletovyj_s_serebrom
манго;mango
"зеленый с белым";zelenyj_s_belym
"сиреневый с черным";sirenevyj_s_chernym
хаки;haki
"молочный с золотом";molochnyj_s_zolotom
ежевичный;ezhevichnyj
"нежно-розовый с черным";nezhno-rozovyj_s_chernym
"зеленый лимон";zelenyj_limon
оранжевый/белый;oranzhevyj_belyj
"желтый с синим";zheltyj_s_sinim
серебро/красный/черный;serebro_krasnyj_chernyj
"серый камуфляж";seryj_kamuflyazh
голубой;goluboj
"розовая шотландка";rozovaya_shotlandka
"неоновый розовый";neonovyj_rozovyj
темно-фиолетовый;temno-fioletovyj
шотландка;shotlandka
белый/красный/черный;belyj_krasnyj_chernyj
"красный с серым";krasnyj_s_serym
нежно-розовый;nezhno-rozovyj
"белый с синим";belyj_s_sinim
"синий с розовым";sinij_s_rozovym
"леопард с розовым";leopard_s_rozovym
"зеленый с розовым";zelenyj_s_rozovym
"белый с серебристым";belyj_s_serebristym
"черный с серым";chernyj_s_serym
кремовый;kremovyj
"телесный с черным";telesnyj_s_chernym
тигровый;tigrovyj
"серебристый с розовым";serebristyj_s_rozovym
"синий с красным";sinij_s_krasnym
