prodid;vendor_id;vendor_code;name;description;img1;img2;img3;img4;img5;img6;img7;img8;img9;img10;batteries;pack;material;length;diameter;collection;categories_1;categories_2;categories_3;bestseller;new;function;addfunction;vibration;volume;modelyear;infoprice
17561;160;NSN-1115-23;"Темно-серая насадка на пенис RENEGADE REVERSIBLE POWER CAGE";"Насадка на пенис с петлей для мошонки предназначена для предотвращения преждевременного семяизвержения. Стимуляция для обоих партнеров. Эластичная и легко растягивается. Длина - 16 см. Диаметр - 3,5 см.";http://feed.p5s.ru/images/big/1/17561.jpg;http://feed.p5s.ru/images/big/1/17561-1.jpg;;;;;;;;;;"картонная коробка";"Термопластичная резина (TPR)";;;Renegade;Мужчинам;"Эрекционные кольца";;0;0;"удлинение фаллоса";;0;;;1760
17562;160;NSN-1102-23;"Большой черный анатомический массажер простаты RENEGADE VIBRATING MASSAGER";"Анатомически правильный массажер простаты с дополнительным стимулятором промежности, так же можно использовать для стимулирования точки G и клитора. 3 режима вибрации. Водонепроницаемый. Батарейки 3 LR44 (в комплекте). Диаметр 3 см, длина в выпрямленном виде 10-11 см.";http://feed.p5s.ru/images/big/1/17562.jpg;http://feed.p5s.ru/images/big/1/17562-1.jpg;http://feed.p5s.ru/images/big/1/17562-2.jpg;http://feed.p5s.ru/images/big/1/17562-3.jpg;;;;;;;;"картонная коробка";силикон;;;Renegade;Мужчинам;"Массажеры простаты";;0;0;"анальная стимуляция";;1;;;3070
17570;160;NSN-0405-23;"Черный фаллоимитатор Colours - 8  на присоске";"Фаллоимитатор реалистичный Pleasures Colours – 8 черный изготовлен из безопасного медицинского силикона. Благодаря бархатистой поверхности идеально подходит для приятного проникновения. Имеет естественный размер 20,3 см. Слегка изогнут, обладает ярко  выраженным реалистичным рельефом для  достижения неземного удовольствия. Оснащён мощной присоской, способен крепиться к любой плоской поверхности для воплощения тайных фантазий.  Длина - 25 см. Диаметр - 4,5 см.";http://feed.p5s.ru/images/big/1/17570.jpg;http://feed.p5s.ru/images/big/1/17570-1.jpg;;;;;;;;;;"картонная коробка";силикон;;;Colours;Женщинам;Фаллоимитаторы;Реалистичные;0;0;"вагинальная стимуляция";;0;;;4230
17613;160;NSN-1221-13;"Виниловый кляп SINFUL BALL GAG";"Темный цвет – это сексуальность, поэтому в этой коллекции использован именно полуночный черный. Выпуклая, трехмерная текстура черного винила – очень рельефная и необычная на ощупь. Элементы из настоящей кожи придают фетишиское очарование.   Дышащий пластиковый кляп Sinful Ball Gag виниловый черный с регулируемым ремнем крепления. Водонепроницаемая прокладка из неопрена, служит для поглощения пота. Неопрен – это очень удобный материал и не раздражает кожу. Отлично подходит для длительного ношения. В ремне есть много отверстий, так что не имеет значения размер, он точно Вам подойдет.  Если Вы хотите разнообразить свою интимную жизнь и добавить к ней фетишизма, эта коллекция Вам в этом поможет.";http://feed.p5s.ru/images/big/1/17613.jpg;http://feed.p5s.ru/images/big/1/17613-1.jpg;http://feed.p5s.ru/images/big/1/17613-2.jpg;;;;;;;;;"картонная коробка";винил;;;Sinful;Парам;"BDSM, садо-мазо товары";"Маски, кляпы";0;0;"садомазохистская атрибутика";;;;;1000
31077;160;NSN-1106-23;"Чёрная анальная пробка для ношения Renegade Spades Medium - 10,1 см.";"Анальная пробка для ношения Renegade - Spades - гладкая, шелковистая и бесшовная. Коническая форма, прочное и узкое основание - для комфортного и безопасного использования. Даже во время движений, ты будешь получать удовольствие.";http://feed.p5s.ru/images/big/3/31077.jpg;http://feed.p5s.ru/images/big/3/31077-1.jpg;;;;;;;;;;"картонная коробка";силикон;10.10;3.50;Renegade;Женщинам;"Анальные игрушки";"Анальные пробки";0;0;"анальная стимуляция";;0;;;1290
31078;160;NSN-1106-33;"Большая чёрная анальная пробка Renegade Spades  для ношения - 10,1 см.";"Анальная пробка для ношения Renegade - Spades - гладкая, шелковистая и бесшовная. Коническая форма, прочное и узкое основание - для комфортного и безопасного использования. Даже во время движений, ты будешь получать удовольствие.";http://feed.p5s.ru/images/big/3/31078.jpg;http://feed.p5s.ru/images/big/3/31078-1.jpg;;;;;;;;;;"картонная коробка";силикон;10.10;3.80;Renegade;Женщинам;"Анальные игрушки";"Анальные пробки";0;0;"анальная стимуляция";;0;;;1560
31086;160;NSN-1124-13;"Автоматическая вакуумная помпа Powerhouse Pump ";"Электрическая вакуумная помпа Renegade - Powerhouse Pump для удобного применения и максимального результата. Стильный дизайн, качественная и долговечная насадка и предельно простое управление. Лучший выбор - современного мужчины. В комплекте USB зарядка.";http://feed.p5s.ru/images/big/3/31086.jpg;http://feed.p5s.ru/images/big/3/31086-1.jpg;;;;;;;;;"Встроенный аккумулятор";"картонная коробка";"Термопластичная резина (TPR)";30.40;7.60;Renegade;Мужчинам;"Вакуумные помпы";;0;0;"усиление эрекции";"удлинение фаллоса";0;;;5230
38960;239;HFW-403;"Кеды из денима шотландской расцветки Hardcore";"Классические кеды в шотладской расцветки из плотного денима. Завязываются на шнурки белого цвета. Подошва из резины. На язычке, сбоку на щиколотке и сзади на подошве лого Hustler. Внутри стелька из денима.  Высота резиновой подошвы - 2,5 см.";http://feed.p5s.ru/images/big/3/38960.jpg;;;;;;;;;;;"картонная коробка";"тканевая основа";;;;"Эротическая одежда";"Эротическая обувь";;0;0;"эротичная одежда";;;;;1540
40497;160;NSN-0451-13;"Гладкая черная анальная пробка Jelly Rancher T-Plug Smooth - 10,9 см.";"Анальная пробка Jelly Rancher T-Plug - Smooth для  возбуждающих прогулок, развивающих фантазию. Анальный секс должен приносить настоящее наслаждение и яркую разрядку.  Чтобы научить и подготовить сфинктер безболезненно открывать  ворота  нужно использовать пробку для ношения. Анальная пробка Jelly мягкая и удобная из безопасного материала, который используется с лубрикантами на любой основе и не требует дополнительного ухода.  Форма основания идеально подходит для ношения и совершенно не мешает во время секса.";http://feed.p5s.ru/images/big/4/40497.jpg;http://feed.p5s.ru/images/big/4/40497-1.jpg;;;;;;;;;;блистер;"Термопластичный эластомер (TPE)";10.90;2.70;"Jelly Rancher";Женщинам;"Анальные игрушки";"Анальные пробки";0;0;"анальная стимуляция";;0;;;840
49517;160;NSN-0475-27;"Голубая, светящаяся в темноте пробка Firefly Pleasure Plug Small - 10,1 см.";"Анальная пробка малая  Firefly Pleasure Plug Small Blue голубого цвета  отлично подойдет новичкам в анальном сексе. Податливый материал легко принимает изгибы вашего тела, а широкое основание-присоска служит безопасным ограничителем и в тоже время прекрасно крепится к гладким плоским поверхностям.";http://feed.p5s.ru/images/big/4/49517.jpg;http://feed.p5s.ru/images/big/4/49517-1.jpg;;;;;;;;;;блистер;"Термопластичный эластомер (TPE)";10.10;3.00;Firefly;Женщинам;"Анальные игрушки";"Анальные пробки";0;0;"анальная стимуляция";;0;;;860
49534;160;NSN-1117-13;"Чёрные анальные шарики Renegade Pleasure Balls";"Анальные шарики Renegade Pleasure Balls представляют собой идеальный аксессуар для авантюрной анальной игры. Три шарика нанизаны на прочной и гибкой нити, на конце которой имеется специальное кольцо на палец для удобного и максимально безопасного извлечения. При этом шарики не полностью зафиксированы, а имеют некоторый запас хода для более изысканных ощущений.Также анальные шарики можно использовать для тренировки ректальных мышц, выполняя упражнения на удержание.";http://feed.p5s.ru/images/big/4/49534.jpg;http://feed.p5s.ru/images/big/4/49534-1.jpg;;;;;;;;;;блистер;"Термопластичная резина (TPR)";40.40;3.80;Renegade;Женщинам;"Анальные игрушки";"Анальные шарики, цепочки";0;1;"анальная стимуляция";;0;;;1900
57659;255;CR-3997;"Украшение-колье на тело из золотистых цепочек ";"Красивое украшение из золотистых цепочек, соединенных ниткой бус. Можно надевать и на выход, и в спальню. ";http://feed.p5s.ru/images/big/5/57659.jpg;;;;;;;;;;;"картонная коробка";металл;;;;"Эротическая одежда";Beauty-аксессуары;;0;1;"дополнительный аксессуар";;;;;1870
57660;255;CR-3998;"Роскошный лиф-колье на тело из золотистых цепочек";"Роскошный лиф-колье, который можно надеть и на голое тело.";http://feed.p5s.ru/images/big/5/57660.jpg;;;;;;;;;;;"картонная коробка";металл;;;;"Эротическая одежда";Beauty-аксессуары;;0;1;"дополнительный аксессуар";;;;;1870
57661;255;CR-3895;"Украшение на тело из цепочек и перламутровых бусин";"Интересный корсет из тонких металлических цепочек. Свободно ниспадает, можно носить даже с вечерним платьем.";http://feed.p5s.ru/images/big/5/57661.jpg;http://feed.p5s.ru/images/big/5/57661-1.jpg;;;;;;;;;;"картонная коробка";металл;;;;"Эротическая одежда";Beauty-аксессуары;;0;1;"дополнительный аксессуар";;;;;1910
57662;255;CR-3999;"Шикарный лиф-колье на тело или одежду";"Лиф из тонких золотистых цепей, соединенных крупным украшением на груди. Его можно надеть и на одежду, и на голое тело.";http://feed.p5s.ru/images/big/5/57662.jpg;http://feed.p5s.ru/images/big/5/57662-1.jpg;;;;;;;;;;"картонная коробка";металл;;;;"Эротическая одежда";Beauty-аксессуары;;0;1;"дополнительный аксессуар";;;;;1870
57677;255;CR-4001;"Сорочка Hollywood с пайетками и пажами";"Сексуальная сорочка в стиле «Голливуд», для девушки, которая хочет выглядеть ярко и дерзко. Конструкция сорочки из эластичной сетки и красной ткани с пайетками визуально вытягивает силуэт. Такие модели хорошо смотрятся на девушках с любой фигурой, скрывают животик, поддерживают грудь.  Бюстгальтер с уплотнёнными чашечками на косточках, бретельки регулируются по длине, на спине застёжка-удлинитель. К подолу сорочки крепятся регулируемые пажи для чулок. В комплекте трусики-стринги в тон, очень удобные и подходят для ежедневного ношения.  В комплекте: сорочка, трусики-стринги.";http://feed.p5s.ru/images/big/5/57677.jpg;http://feed.p5s.ru/images/big/5/57677-1.jpg;http://feed.p5s.ru/images/big/5/57677-2.jpg;;;;;;;;;"картонная коробка";"90% полиэстер, 10% эластан";;;;"Эротическая одежда";"Сорочки, беби-долл";;0;1;"эротичная одежда";;;;;1970
57678;255;CR-4083;"Кружевной комплект с оригинальным лифом ";"Элегантный комплект эротического белья, состоит из трусиков-стрингов и оригинального бюстгальтера. Лиф, на первый взгляд классического кроя, продолжается к шее кружевным воротником, делая модель необычной. Грудь поддерживают аккуратные чашечки.  В комплекте: лиф, трусики-стринги.";http://feed.p5s.ru/images/big/5/57678.jpg;http://feed.p5s.ru/images/big/5/57678-1.jpg;http://feed.p5s.ru/images/big/5/57678-2.jpg;http://feed.p5s.ru/images/big/5/57678-3.jpg;http://feed.p5s.ru/images/big/5/57678-4.jpg;;;;;;;"картонная коробка";"90% полиэстер,10% эластан";;;;"Эротическая одежда";"Бикини и комплекты";;0;1;"эротичная одежда";;;;;1770
57679;255;CR-4106;"Кружевной боди-комбинезон с имитацией чулок";"Кэтсьюит из нежнейшей тонкой сетки с изысканным цветочным узором. Идеально облегает тело, материал достаточно эластичный, но при этом не деформируется и не растягивается больше, чем нужно. Держится за счет тонких лямок. Модель с доступом между ножками.";http://feed.p5s.ru/images/big/5/57679.jpg;http://feed.p5s.ru/images/big/5/57679-1.jpg;http://feed.p5s.ru/images/big/5/57679-2.jpg;http://feed.p5s.ru/images/big/5/57679-3.jpg;;;;;;;;"картонная коробка";"90% нейлон, 10% эластан";;;;"Эротическая одежда";"Боди и комбинезоны";;0;1;"эротичная одежда";;;;;1700
57681;255;CR-4092;"WOW-комбинезон телесного цвета с чёрными узорами";"Совершенно необычайный комбинезон скромного телесного цвета с яркими хищными полосками из мира животных. Дикая киска, вау-эффект.";http://feed.p5s.ru/images/big/5/57681.jpg;http://feed.p5s.ru/images/big/5/57681-1.jpg;http://feed.p5s.ru/images/big/5/57681-2.jpg;http://feed.p5s.ru/images/big/5/57681-3.jpg;;;;;;;;"картонная коробка";"90% нейлон, 10% эластан";;;;"Эротическая одежда";"Боди и комбинезоны";;0;1;"эротичная одежда";;;;;1920
57682;255;CR-4064;"Королевская сорочка в пол с кружевным лифом";"Длинная сорочка фасона  ночная королева , в пол, со шлейфом. Полупрозрачная. Миниатюрные стринги в комплекте.  В комплекте: сорочка, трусики-стринги.";http://feed.p5s.ru/images/big/5/57682.jpg;http://feed.p5s.ru/images/big/5/57682-1.jpg;;;;;;;;;;"картонная коробка";"90% полиэстер, 10% эластан";;;;"Эротическая одежда";"Сорочки, беби-долл";;0;1;"эротичная одежда";;;;;2570
57683;255;CR-4097;"Комбинезон-сетка с цветочным узором ";"Чувственный ажурный комбинезон с цветочным принтом соблазнительно облегает тело. Тонкие бретельки, форма декольте - каре.";http://feed.p5s.ru/images/big/5/57683.jpg;http://feed.p5s.ru/images/big/5/57683-1.jpg;;;;;;;;;;"картонная коробка";"90% нейлон, 10% эластан";;;;"Эротическая одежда";"Боди и комбинезоны";;0;1;"эротичная одежда";;;;;1420
57684;255;CR-4104;"Оригинальный комбинезон с вырезами";"Комбинезон-сетка из эластичного материала, соблазнительно подчеркивающий все прелести. Прекрасно тянется, не деформируется, достаточно прочный. Делится на верх по типу корсажа и чулочки, которые соединяются между собой. Держится на тонких лямках. Весь верх и основание чулочков украшает узор из небольших, аккуратных круглых прорезей разного диаметра.";http://feed.p5s.ru/images/big/5/57684.jpg;http://feed.p5s.ru/images/big/5/57684-1.jpg;;;;;;;;;;"картонная коробка";"90% нейлон, 10% эластан";;;;"Эротическая одежда";"Боди и комбинезоны";;0;1;"эротичная одежда";;;;;1650
57685;255;CR-4108;"Платье с крупной сеткой на груди";"Очаровательное мини-платье, выполненное из эластичной сетки. Верх, низ и талия имеют различный рисунок, привлекая внимание к просвечивающей груди, где самая крупная сетка, и заставляя гадать, что прячется снизу.";http://feed.p5s.ru/images/big/5/57685.jpg;http://feed.p5s.ru/images/big/5/57685-1.jpg;http://feed.p5s.ru/images/big/5/57685-2.jpg;http://feed.p5s.ru/images/big/5/57685-3.jpg;http://feed.p5s.ru/images/big/5/57685-4.jpg;;;;;;;"картонная коробка";"90% нейлон, 10% эластан";;;;"Эротическая одежда";"Эротическое платье";;0;1;"эротичная одежда";;;;;1670
57685;255;CR-4108;"Платье с крупной сеткой на груди";"Очаровательное мини-платье, выполненное из эластичной сетки. Верх, низ и талия имеют различный рисунок, привлекая внимание к просвечивающей груди, где самая крупная сетка, и заставляя гадать, что прячется снизу.";http://feed.p5s.ru/images/big/5/57685.jpg;http://feed.p5s.ru/images/big/5/57685-1.jpg;http://feed.p5s.ru/images/big/5/57685-2.jpg;http://feed.p5s.ru/images/big/5/57685-3.jpg;http://feed.p5s.ru/images/big/5/57685-4.jpg;;;;;;;"картонная коробка";"90% нейлон, 10% эластан";;;;"Эротическая одежда";"БОЛЬШИЕ размеры";;0;1;"эротичная одежда";;;;;1670
57687;255;CR-4068;"Роскошное боди со шлейфом";"Очень оригинальное боди со шлейфом. Прозрачная эластичная ткань, нежное кружево на бёдрах и груди.";http://feed.p5s.ru/images/big/5/57687.jpg;http://feed.p5s.ru/images/big/5/57687-1.jpg;http://feed.p5s.ru/images/big/5/57687-2.jpg;http://feed.p5s.ru/images/big/5/57687-3.jpg;;;;;;;;"картонная коробка";"90% полиэстер, 10% эластан";;;;"Эротическая одежда";"Боди и комбинезоны";;0;1;"эротичная одежда";;;;;2470
57689;255;CR-4093;"Комбинезон с дырочками и красивым декольте";"Очень интересный полупрозрачный комбинезон с ажурным горошком из дырочек. Снизу все совершенно открыто.";http://feed.p5s.ru/images/big/5/57689.jpg;http://feed.p5s.ru/images/big/5/57689-1.jpg;http://feed.p5s.ru/images/big/5/57689-2.jpg;;;;;;;;;"картонная коробка";"90% нейлон, 10% эластан";;;;"Эротическая одежда";"Боди и комбинезоны";;0;1;"эротичная одежда";;;;;1560
57690;255;CR-4102;"Комбинезон с имитацией шнуровки";"Роскошный, невероятно сексапильный комбинезон из комбинированной сетки. Его фишка в том, что сочетание различных узоров делает модель визуально многослойной - как будто это тонкое боди с узорами поверх классических колготок в мелкую сетку. На груди - имитация шнуровки, по животу расходятся цветочные лепестки, а самый низ выполнен а-ля глубокое бикини.   ";http://feed.p5s.ru/images/big/5/57690.jpg;http://feed.p5s.ru/images/big/5/57690-1.jpg;http://feed.p5s.ru/images/big/5/57690-2.jpg;;;;;;;;;"картонная коробка";"90% нейлон, 10% эластан";;;;"Эротическая одежда";"Боди и комбинезоны";;0;1;"эротичная одежда";;;;;1520
57691;255;CR-4079;"Коротенький пеньюар с ажурными рукавчиками";"Полупрозрачный коротенький халатик с атласной лентой, обнажающий ножки, подчеркнутый кружевом на груди, и миниатюрные трусики-стринги в комплекте. В комплекте: халат, трусики-стринги.";http://feed.p5s.ru/images/big/5/57691.jpg;http://feed.p5s.ru/images/big/5/57691-1.jpg;http://feed.p5s.ru/images/big/5/57691-2.jpg;;;;;;;;;"картонная коробка";"90% полиэстер, 10% эластан";;;;"Эротическая одежда";"Халаты и пеньюары";;0;1;"эротичная одежда";;;;;2310
57693;255;CR-4107;"Плотный комбинезон с открытыми бёдрами и двойными бретелями";"Комбинезон-сетка из эластичного материала, соблазнительно подчеркивающий все прелести. Прекрасно тянется, не деформируется, достаточно прочный. Держится на тонких лямках. Весь верх по бокам и основание чулочков украшает узор из небольших, аккуратных круглых прорезей. Визуально это делает фигуру более стройной и вытянутой.";http://feed.p5s.ru/images/big/5/57693.jpg;http://feed.p5s.ru/images/big/5/57693-1.jpg;http://feed.p5s.ru/images/big/5/57693-2.jpg;http://feed.p5s.ru/images/big/5/57693-3.jpg;;;;;;;;"картонная коробка";"90% нейлон, 10% эластан";;;;"Эротическая одежда";"Боди и комбинезоны";;0;1;"эротичная одежда";;;;;1570
57695;255;CR-4065;"Длинная полупрозрачная сорочка из лёгкой ткани";"Тончайшая невесомая сорочка из полупрозрачной легкой ткани. Длинная. Широкие бретельки, кружево на груди. Трусики-стринги в комплекте. В комплекте: сорочка, трусики-стринги.";http://feed.p5s.ru/images/big/5/57695.jpg;http://feed.p5s.ru/images/big/5/57695-1.jpg;http://feed.p5s.ru/images/big/5/57695-2.jpg;;;;;;;;;"картонная коробка";"90% полиэстер, 10% эластан";;;;"Эротическая одежда";"Сорочки, беби-долл";;0;1;"эротичная одежда";;;;;2470
57697;255;CR-4087;"Полупрозрачный комплект: мини-юбка и топ";"Несколько романтичный вариант прогулки в постель: легкий прозрачный топ с миниатюрной юбочкой. Все прикрыто и открыто одновременно. В комплекте: топ, юбка.";http://feed.p5s.ru/images/big/5/57697.jpg;http://feed.p5s.ru/images/big/5/57697-1.jpg;http://feed.p5s.ru/images/big/5/57697-2.jpg;;;;;;;;;"картонная коробка";"90% полиэстер,10% эластан";;;;"Эротическая одежда";"Бикини и комплекты";;0;1;"эротичная одежда";;;;;1520
57698;255;CR-4108;"Облегающее платье с сеткой на груди";"Очаровательное мини-платье, выполненное из эластичной сетки. Верх, низ и талия имеют различный рисунок, привлекая внимание к просвечивающей груди, где самая крупная сетка, и заставляя гадать, что прячется снизу, под практически непроницаемой материей.";http://feed.p5s.ru/images/big/5/57698.jpg;http://feed.p5s.ru/images/big/5/57698-1.jpg;http://feed.p5s.ru/images/big/5/57698-2.jpg;http://feed.p5s.ru/images/big/5/57698-3.jpg;http://feed.p5s.ru/images/big/5/57698-4.jpg;;;;;;;"картонная коробка";"90% нейлон, 10% эластан";;;;"Эротическая одежда";"Эротическое платье";;0;1;"эротичная одежда";;;;;1670
57700;255;CR-4086;"Невесомая сорочка с разрезом от бедра";"Совершенно очаровательная сорочка для спальни - вырез на ножке как для красной дорожки в постель. Тонкие бретельки, легкий рисунок, прозрачность. Стринги в комплекте. В комплекте: сорочка, трусики-стринги.";http://feed.p5s.ru/images/big/5/57700.jpg;http://feed.p5s.ru/images/big/5/57700-1.jpg;http://feed.p5s.ru/images/big/5/57700-2.jpg;;;;;;;;;"картонная коробка";"90% полиэстер, 10% эластан";;;;"Эротическая одежда";"Сорочки, беби-долл";;0;1;"эротичная одежда";;;;;2190
57704;255;CR-4084;"Пеньюар с кружевными оборками на рукавах";"Ниспадающий коротенький пеньюарчик на атласной ленте, с кружевными рукавами-жабо. Трусики-стринги в комплекте. В комплекте: пеньюар, трусики-стринги.";http://feed.p5s.ru/images/big/5/57704.jpg;http://feed.p5s.ru/images/big/5/57704-1.jpg;http://feed.p5s.ru/images/big/5/57704-2.jpg;http://feed.p5s.ru/images/big/5/57704-3.jpg;http://feed.p5s.ru/images/big/5/57704-4.jpg;;;;;;;"картонная коробка";"90% полиэстер, 10% эластан";;;;"Эротическая одежда";"Халаты и пеньюары";;0;1;"эротичная одежда";;;;;2390
57707;59;SS70603;"Чёрная насадка с шлепком-ступнёй для системы Top Crop";"Чёрная насадка с шлепком-ступнёй для системы Top Crop от Sportsheets. Основание приобретается отдельно.";http://feed.p5s.ru/images/big/5/57707.jpg;http://feed.p5s.ru/images/big/5/57707-1.jpg;;;;;;;;;;"картонная коробка";"поливинилхлорид (ПВХ, PVC)";;;Sportsheets;Парам;"BDSM, садо-мазо товары";"Кнуты, плётки, хлысты";0;;"дополнительный аксессуар";"садомазохистская атрибутика";;;;0
