prodid;vendor_id;vendor_code;name;description;img1;img2;img3;img4;img5;img6;img7;img8;img9;img10;batteries;pack;material;length;diameter;collection;categories_1;categories_2;categories_3;bestseller;new;function;addfunction;vibration;volume;modelyear;infoprice
20598;72;2681;"Ажурные трусики с оборками";"Продемонстрировать любимому свой игривый настрой просто. За вас это сделают эти роскошные черные трусики-стринг с атласными бантиками и рюшами по бокам.  Кружева, умело закрывающие зону бикини, распаляют желание. Если же повернуться попкой, можно ожидать от сексуального партнёра незамедлительных действий!";http://feed.p5s.ru/images/big/2/20598.jpg;http://feed.p5s.ru/images/big/2/20598-1.jpg;http://feed.p5s.ru/images/big/2/20598-2.jpg;http://feed.p5s.ru/images/big/2/20598-3.jpg;;;;;;;;"картонная коробка";"100% полиэстер";;;;"Эротическая одежда";"Трусики и шорты";;0;0;"эротичная одежда";;;;;750
50500;12;PD3027-19;"Белый вибромассажер Mini Wanachi";"С новым массажером Mini Wanachi Вы сможете сами делать себе и своим близким массаж тогда, когда Вам это необходимо. Никто лучше нас самих не знает наше тело, поэтому теперь Вы будете проводить максимально эффективный массаж в домашних условиях.   Специальная конструкция позволяет добраться до самых укромных мест, которые, как правило, больше всего нуждаются в массаже. Гибкая головка, небольшой вес, удобная форма – все это Вы и Ваши близкие обязательно оцените по достоинству после первого сеанса с этим отличным массажером.    Гибкое соединение выполнено из гипоаллергенного безопасного пластика. Не содержит вредных соединений, в том числе фталатов. Массажер абсолютно безопасен для кожи.   Компактные размеры вибромассажер Mini Wanachi позволят Вам никогда не расставаться с любимой игрушкой. Возьмите его с собой в деловую поездку или отдых, он принесет Вам радость и удовольствие.  ";http://feed.p5s.ru/images/big/5/50500.jpg;http://feed.p5s.ru/images/big/5/50500-1.jpg;http://feed.p5s.ru/images/big/5/50500-2.jpg;;;;;;;;"2 шт., тип AA";"картонная коробка";"пластик, силикон";21.00;3.40;Wanachi;Женщинам;"Секс-товары для женщин";"Клиторальные стимуляторы";0;0;"стимуляция клитора";"эротический массаж";1;;;1570
50500;12;PD3027-19;"Белый вибромассажер Mini Wanachi";"С новым массажером Mini Wanachi Вы сможете сами делать себе и своим близким массаж тогда, когда Вам это необходимо. Никто лучше нас самих не знает наше тело, поэтому теперь Вы будете проводить максимально эффективный массаж в домашних условиях.   Специальная конструкция позволяет добраться до самых укромных мест, которые, как правило, больше всего нуждаются в массаже. Гибкая головка, небольшой вес, удобная форма – все это Вы и Ваши близкие обязательно оцените по достоинству после первого сеанса с этим отличным массажером.    Гибкое соединение выполнено из гипоаллергенного безопасного пластика. Не содержит вредных соединений, в том числе фталатов. Массажер абсолютно безопасен для кожи.   Компактные размеры вибромассажер Mini Wanachi позволят Вам никогда не расставаться с любимой игрушкой. Возьмите его с собой в деловую поездку или отдых, он принесет Вам радость и удовольствие.  ";http://feed.p5s.ru/images/big/5/50500.jpg;http://feed.p5s.ru/images/big/5/50500-1.jpg;http://feed.p5s.ru/images/big/5/50500-2.jpg;;;;;;;;"2 шт., тип AA";"картонная коробка";"пластик, силикон";21.00;3.40;Wanachi;Женщинам;Вибраторы;"Вибростимуляторы, вибропульки ";0;0;"стимуляция клитора";"эротический массаж";1;;;1570
57582;295;DP621;"Трусики для страпона с креплением насадок кольцами";"Удобные мягкие трусики с креплением типа O-ring для страпона. Остается только выбрать насадки - к трусикам подойдут фаллоимитаторы с плоским основанием. Размер комфортно регулируется при помощи карабинов на нейлоновых ремнях.";http://feed.p5s.ru/images/big/5/57582.jpg;http://feed.p5s.ru/images/big/5/57582-1.jpg;;;;;;;;;;"прозрачный пакет";нейлон;;;;Парам;"Страпоны, фаллопротезы";"Трусики и насадки";0;1;"вспомогательное фаллоприспособление";;;;;1680
57606;255;CR-4062;"Эротическое мини-платье с эффектом мокрой ткани и шнуровкой на спинке";"Сексуальное мини-платье с пикантной  шнуровкой на спине и ягодицах. Отлично обтягивает и подходит даже девушкам с не модельной фигурой. ";http://feed.p5s.ru/images/big/5/57606.jpg;http://feed.p5s.ru/images/big/5/57606-1.jpg;http://feed.p5s.ru/images/big/5/57606-2.jpg;;;;;;;;;"картонная коробка";"90% полиэстер, 10% спандекс";;;;"Эротическая одежда";"Эротическое платье";;0;1;"эротичная одежда";;;;;2170
57609;72;2705;"Открытые кружевные трусики с V-образной вставкой";"Открытые кружевные трусики с V-образной вставкой.";http://feed.p5s.ru/images/big/5/57609.jpg;http://feed.p5s.ru/images/big/5/57609-1.jpg;;;;;;;;;;"картонная коробка";"97% полиэстер, 3% эластан";;;;"Эротическая одежда";"Трусики и шорты";;0;1;"эротичная одежда";;;;;780
57609;72;2705;"Открытые кружевные трусики с V-образной вставкой";"Открытые кружевные трусики с V-образной вставкой.";http://feed.p5s.ru/images/big/5/57609.jpg;http://feed.p5s.ru/images/big/5/57609-1.jpg;;;;;;;;;;"картонная коробка";"97% полиэстер, 3% эластан";;;;"Эротическая одежда";"БОЛЬШИЕ размеры";;0;1;"эротичная одежда";;;;;780
57611;255;CR-3605;"Эротический костюм учительницы Teacher Set";"Ролевые игры – это всегда забавно, особенно, если в ход идут классические герои. Здесь не прогадаешь – они всегда в моде и дают ожидаемый эффект. При виде вас в таком костюме ваш партнер, безусловно, захочет быть плохим мальчиком. Предоставьте ему возможность «исправить плохие оценки» и стать «отличником»! В комплекте: юбка, топ, галстук, очки, пояс.";http://feed.p5s.ru/images/big/5/57611.jpg;http://feed.p5s.ru/images/big/5/57611-1.jpg;;;;;;;;;;"картонная коробка";"100% полиамид";;;;"Эротическая одежда";"Игровые костюмы";;0;1;"эротический массаж";"эротические игры";;;;2730
57615;178;0256781;"Латексные трусики с фаллосом - 16 см.";"Латексные трусики с фаллосом. Универсальный размер.";http://feed.p5s.ru/images/big/5/57615.jpg;;;;;;;;;;;"прозрачный пакет";латекс;16.00;4.00;"Late X";Парам;"Страпоны, фаллопротезы";"Женские страпоны";0;;"вспомогательное фаллоприспособление";"вагинальная стимуляция";0;;;0
57616;178;"2860040 4091";"Фиолетовая виниловая простынь на двуспальную кровать";"Фиолетовая виниловая простынь на двуспальную кровать. Размеры - 200 х 230 см.";http://feed.p5s.ru/images/big/5/57616.jpg;;;;;;;;;;;"прозрачный пакет";винил;;;"Fetish Collection";Парам;"BDSM, садо-мазо товары";"Другие BDSM товары";0;;"садомазохистская атрибутика";"эротические игры";;;;0
57617;178;2900050;"Чёрные женские трусики из латекса";"Чёрные женские трусики из латекса.";http://feed.p5s.ru/images/big/5/57617.jpg;;;;;;;;;;;"прозрачный пакет";латекс;;;"Late X";"Эротическая одежда";"Одежда из латекса";;0;;"эротичная одежда";"садомазохистская атрибутика";;;;0
57618;178;0575763;"Чёрно-серебристый мини-вибратор для точки G - 14 см.";"Чёрно-серебристый мини-вибратор для точки G. Шелковистая поверхность, специальным образом загнутый кончик.";http://feed.p5s.ru/images/big/5/57618.jpg;http://feed.p5s.ru/images/big/5/57618-1.jpg;;;;;;;;;"1 шт., тип AA";"картонная коробка";"анодированный пластик (ABS)";14.00;2.70;You2Toys;Женщинам;Вибраторы;"Стимуляторы G-точки";0;1;"стимулятор зоны G (G-точки)";"вагинальная стимуляция";1;;;750
57620;178;0776726;"Сувенирный фаллоимитатор в банане - 18 см.";"Сувенирный фаллоимитатор в банане. Может быть наполнен водой или смазкой для имитации эякуляции. Рабочая длина - 13 см., диаметр - 3,5 см.";http://feed.p5s.ru/images/big/5/57620.jpg;http://feed.p5s.ru/images/big/5/57620-1.jpg;;;;;;;;;;"картонная коробка";"поливинилхлорид (ПВХ, PVC)";18.00;4.50;;"Все для секса";"Приятные мелочи";Сувениры;0;1;сувенир;"вагинальная стимуляция";0;;;530
57620;178;0776726;"Сувенирный фаллоимитатор в банане - 18 см.";"Сувенирный фаллоимитатор в банане. Может быть наполнен водой или смазкой для имитации эякуляции. Рабочая длина - 13 см., диаметр - 3,5 см.";http://feed.p5s.ru/images/big/5/57620.jpg;http://feed.p5s.ru/images/big/5/57620-1.jpg;;;;;;;;;;"картонная коробка";"поливинилхлорид (ПВХ, PVC)";18.00;4.50;;Женщинам;Фаллоимитаторы;"Классические дилдо";0;1;сувенир;"вагинальная стимуляция";0;;;530
57622;178;0522112;"Синий стимулятор-дилатор унисекс";"Синий стимулятор-дилатор для стимуляции уретры. Закруглённые гладкие кончики для лёгкого введения.";http://feed.p5s.ru/images/big/5/57622.jpg;;;;;;;;;;;блистер;силикон;16.50;0.80;You2Toys;Парам;"BDSM, садо-мазо товары";"Другие BDSM товары";0;;"садомазохистская атрибутика";;0;;;0
57623;178;0522120;"Синий стимулятор уретры унисекс";"Синий стимулятор-дилатор для стимуляции уретры. Закруглённые гладкие кончики для лёгкого введения.";http://feed.p5s.ru/images/big/5/57623.jpg;;;;;;;;;;;блистер;силикон;16.50;1.00;You2Toys;Парам;"BDSM, садо-мазо товары";"Другие BDSM товары";0;;"садомазохистская атрибутика";;0;;;0
57624;178;0522104;"Синий стимулятор-дилатор для стимуляции уретры";"Синий стимулятор-дилатор для стимуляции уретры. Закруглённые гладкие кончики для лёгкого введения.";http://feed.p5s.ru/images/big/5/57624.jpg;http://feed.p5s.ru/images/big/5/57624-1.jpg;;;;;;;;;;блистер;силикон;16.50;0.60;You2Toys;Парам;"BDSM, садо-мазо товары";"Другие BDSM товары";0;;"садомазохистская атрибутика";;0;;;0
57626;194;62009ars;"Классический кожаный стек - 65,5 см.";"Стек сделан из прочного сердечника с оплеткой из кожи. Наконечник в виде хлопушки из кожи для осуществления ударов. Также на ручке присутствует кожаная петля, которая позволяет закрепить стек при проведении наказания партнёра. Девайс отлично подходит для БДСМ игр. Мягкая и гибкая конструкция позволяет избежать повреждений тела даже при сильных ударах. Хлопушка сделана из подшитой кожи, рукоятка стека жёсткая, обшита кожей и имеет петлю для фиксации Размеры хлопушки - 11 х 4 см.";http://feed.p5s.ru/images/big/5/57626.jpg;http://feed.p5s.ru/images/big/5/57626-1.jpg;http://feed.p5s.ru/images/big/5/57626-2.jpg;;;;;;;;;"без упаковки";"натуральная кожа";65.50;;;Парам;"BDSM, садо-мазо товары";"Кнуты, плётки, хлысты";0;1;"садомазохистская атрибутика";;;;;1880
57627;194;770002ars;"Лаковый стек с красной меховой ручкой - 64 см.";"Стек сделан из прочного сердечника с оплеткой из меха. Оформлен БДСМ девайс наконечником в виде сердечка из лаковой кожи для осуществления ударов. Также на ручке присутствует кожаная петля, которая позволяет закрепить стек при проведении наказания партнёра. Девайс отлично подходит для БДСМ игр. Мягкая и гибкая конструкция позволяет избежать повреждений тела даже при сильных ударах. Хлопушка сделана из лаковой кожи, рукоятка стека жёсткая, обшита мехом красного цвета и имеет петлю для фиксации. Ширина хлопушки - 6,5 см.";http://feed.p5s.ru/images/big/5/57627.jpg;http://feed.p5s.ru/images/big/5/57627-1.jpg;http://feed.p5s.ru/images/big/5/57627-2.jpg;;;;;;;;;"без упаковки";"натуральная кожа";64.00;;;Парам;"BDSM, садо-мазо товары";"Кнуты, плётки, хлысты";0;1;"садомазохистская атрибутика";;;;;1770
57628;194;770001ars;"Лаковый стек с розовой меховой ручкой - 64 см.";"Стек сделан из прочного сердечника с оплеткой из меха. Оформлен БДСМ девайс наконечником в виде сердечка из лаковой кожи для осуществления ударов. Также на ручке присутствует кожаная петля, которая позволяет закрепить стек при проведении наказания партнёра. Девайс отлично подходит для БДСМ игр. Мягкая и гибкая конструкция позволяет избежать повреждений тела даже при сильных ударах. Хлопушка сделана из лаковой кожи, рукоятка стека жёсткая, обшита мехом розового цвета и имеет петлю для фиксации. Ширина хлопушки - 6,5 см.";http://feed.p5s.ru/images/big/5/57628.jpg;http://feed.p5s.ru/images/big/5/57628-1.jpg;http://feed.p5s.ru/images/big/5/57628-2.jpg;;;;;;;;;"без упаковки";"натуральная кожа";64.00;;;Парам;"BDSM, садо-мазо товары";"Кнуты, плётки, хлысты";0;1;"садомазохистская атрибутика";;;;;1770
57629;194;770003ars;"Лаковый стек с синей меховой ручкой - 64 см.";"Стек сделан из прочного сердечника с оплеткой из меха. Оформлен БДСМ девайс наконечником в виде сердечка из лаковой кожи для осуществления ударов. Также на ручке присутствует кожаная петля, которая позволяет закрепить стек при проведении наказания партнёра. Девайс отлично подходит для БДСМ игр. Мягкая и гибкая конструкция позволяет избежать повреждений тела даже при сильных ударах. Хлопушка сделана из лаковой кожи, рукоятка стека жёсткая, обшита мехом синего цвета и имеет петлю для фиксации. Ширина хлопушки - 6,5 см.";http://feed.p5s.ru/images/big/5/57629.jpg;http://feed.p5s.ru/images/big/5/57629-1.jpg;http://feed.p5s.ru/images/big/5/57629-2.jpg;;;;;;;;;"без упаковки";"натуральная кожа";64.00;;;Парам;"BDSM, садо-мазо товары";"Кнуты, плётки, хлысты";0;1;"садомазохистская атрибутика";;;;;1770
57630;194;62007ars;"Коричневый профессиональный стек - 73 см.";"Стек сделан из прочного сердечника с оплетением из кожи. Наконечник в виде хлопушки из кожи для осуществления ударов. Также на ручке присутствует кожаная петля, которая позволяет закрепить стек при проведении наказания партнёра. Девайс отлично подходит для БДСМ игр. Мягкая и гибкая конструкция позволяет избежать повреждений тела даже при сильных ударах. Хлопушка сделана из подшитой кожи, рукоятка стека жёсткая, обшита кожей. Размеры хлопушки - 11 х 4 см.";http://feed.p5s.ru/images/big/5/57630.jpg;http://feed.p5s.ru/images/big/5/57630-1.jpg;http://feed.p5s.ru/images/big/5/57630-2.jpg;;;;;;;;;"без упаковки";"натуральная кожа";73.00;;;Парам;"BDSM, садо-мазо товары";"Кнуты, плётки, хлысты";0;1;"садомазохистская атрибутика";;;;;2400
57631;194;62008ars;"Чёрный профессиональный стек с тисненной ручкой - 73 см.";"Стек сделан из прочного сердечника с оплеткой из кожи. Наконечник в виде хлопушки из кожи для осуществления ударов. Девайс отлично подходит для БДСМ игр. Мягкая и гибкая конструкция позволяет избежать повреждений тела даже при сильных ударах. Хлопушка сделана из подшитой кожи, рукоятка стека жёсткая, обшита кожей. Размеры хлопушки - 11 х 4 см.";http://feed.p5s.ru/images/big/5/57631.jpg;http://feed.p5s.ru/images/big/5/57631-1.jpg;http://feed.p5s.ru/images/big/5/57631-2.jpg;;;;;;;;;"без упаковки";"натуральная кожа";73.00;;;Парам;"BDSM, садо-мазо товары";"Кнуты, плётки, хлысты";0;1;"садомазохистская атрибутика";;;;;2400
57632;194;62006ars;"Чёрный профессиональный стек - 73 см.";"Стек сделан из прочного сердечника с оплеткой из кожи. Наконечник в виде хлопушки из кожи для осуществления ударов. Также на ручке присутствует кожаная петля, которая позволяет закрепить стек при проведении наказания партнёра. Девайс отлично подходит для БДСМ игр. Мягкая и гибкая конструкция позволяет избежать повреждений тела даже при сильных ударах. Хлопушка сделана из подшитой кожи, рукоятка стека жёсткая, обшита кожей. Размеры хлопушки - 11 х 4 см.";http://feed.p5s.ru/images/big/5/57632.jpg;;;;;;;;;;;"без упаковки";"натуральная кожа";73.00;;;Парам;"BDSM, садо-мазо товары";"Кнуты, плётки, хлысты";0;1;"садомазохистская атрибутика";;;;;2400
