prodid;vendor_id;vendor_code;name;description;img1;img2;img3;img4;img5;img6;img7;img8;img9;img10;batteries;pack;material;length;diameter;collection;categories_1;categories_2;categories_3;bestseller;new;function;addfunction;vibration;volume;modelyear;infoprice
30550;206;1785;"Чулки в мелкую сетку с рюшей";"Оригинальные полупрозрачные чулки в мелкую сетку с узкой резинкой, украшены рюшевой тесьмой.  Упаковка: Коробка.";http://feed.p5s.ru/images/big/3/30550.jpg;;;;;;;;;;;"картонная коробка";"95% нейлон, 5% спандекс";;;"La Petite";"Эротическая одежда";"Чулки и колготки";;0;0;"эротичная одежда";;;;2012;770
57734;160;NSN-0207-11;"Молочный фактурный мини-вибратор Luxe Compact Vibe Princess - 10,8 см.";"Роскошь и изящество, соединенные в этом бесшумном вибромассажере, выведут на новый уровень ваш сексуальный опыт. Имеет 7 скоростей, оснащен бесшумным мотором, по всей поверхности располагается фактурный узор.";http://feed.p5s.ru/images/big/5/57734.jpg;http://feed.p5s.ru/images/big/5/57734-1.jpg;;;;;;;;;"Встроенный аккумулятор";"картонная коробка";силикон;10.80;3.50;Luxe;Женщинам;Вибраторы;"Вибростимуляторы, вибропульки ";0;1;"вагинальная стимуляция";"стимуляция клитора";1;;2017;4110
57735;160;NSN-0207-13;"Чёрный фактурный мини-вибратор Luxe Compact Vibe Princess - 10,8 см.";"Роскошь и изящество, соединенные в этом бесшумном вибромассажере, выведут на новый уровень ваш сексуальный опыт. Имеет 7 скоростей, оснащен бесшумным мотором, по всей поверхности располагается фактурный узор.";http://feed.p5s.ru/images/big/5/57735.jpg;http://feed.p5s.ru/images/big/5/57735-1.jpg;;;;;;;;;"Встроенный аккумулятор";"картонная коробка";силикон;10.80;3.50;Luxe;Женщинам;Вибраторы;"Вибростимуляторы, вибропульки ";0;1;"вагинальная стимуляция";"стимуляция клитора";1;;2017;4110
57736;160;NSN-0256-24;"Розовый вибромассажер с клиторальным стимулятором Wyld Vibes Bunny - 24,1 см.";"Выполнен вибратор из качественного материала, его нежная головка и гладкая поверхность наполнят Вас желанием и страстью. Вибрирующий Хай-Тек возбудит свою хозяйку вращающими и возвратно-поступательными движениями, которые сладкой истомой разольются по всему телу. Нежный и ласковый вибратор зайчик станет неутомимым любовником и подарит фантастическую сексуальную игру, финал которой будет зависеть только от Вас.";http://feed.p5s.ru/images/big/5/57736.jpg;http://feed.p5s.ru/images/big/5/57736-1.jpg;;;;;;;;;"4 шт., тип AAA";"картонная коробка";"Термопластичная резина (TPR)";24.10;3.30;"Wyld Vibes";Женщинам;Вибраторы;"Со стимулятором клитора";0;1;"вагинальная стимуляция";"стимуляция клитора";1;;2017;3070
57737;160;NSN-0315-34;"Ярко-розовый водонепроницаемый вибромассажер PowerPlay Maxx Power Vibe - 19 см.";"Мощные импульсивные вибрации соединенные в этом бесшумном вибромассажере, выведут на новый уровень ваш сексуальный опыт. Имеет 3 скорости, оснащен бесшумным мотором, по поверхности располагаются фактурные ребрышки.";http://feed.p5s.ru/images/big/5/57737.jpg;http://feed.p5s.ru/images/big/5/57737-1.jpg;;;;;;;;;"2 шт., тип C";"пластиковая коробка";силикон;19.00;4.20;"Power Play";Женщинам;Вибраторы;Классические;0;1;"вагинальная стимуляция";;1;;2017;2800
57737;160;NSN-0315-34;"Ярко-розовый водонепроницаемый вибромассажер PowerPlay Maxx Power Vibe - 19 см.";"Мощные импульсивные вибрации соединенные в этом бесшумном вибромассажере, выведут на новый уровень ваш сексуальный опыт. Имеет 3 скорости, оснащен бесшумным мотором, по поверхности располагаются фактурные ребрышки.";http://feed.p5s.ru/images/big/5/57737.jpg;http://feed.p5s.ru/images/big/5/57737-1.jpg;;;;;;;;;"2 шт., тип C";"пластиковая коробка";силикон;19.00;4.20;"Power Play";Женщинам;Вибраторы;Водонепроницаемые;0;1;"вагинальная стимуляция";;1;;2017;2800
57738;160;NSN-0316-45;"Фиолетовый вибромассажер с усиленной вибрацией BoomBoom Power Wand";"Вибромассажер с мощнейшей вибрацией, а также с дополнительной функцией пульсации! Данный девайс позволяет делать вибромассаж всего тела, но особый эффект достигается при стимуляции эрогенных зон. Контурная массажная головка обеспечит наиболее приятными и эффектными ощущениями.";http://feed.p5s.ru/images/big/5/57738.jpg;http://feed.p5s.ru/images/big/5/57738-1.jpg;;;;;;;;;"4 шт., тип AA";"пластиковая коробка";"Термопластичная резина (TPR)";18.00;4.50;"Power Play";Женщинам;"Секс-товары для женщин";"Клиторальные стимуляторы";0;1;"стимуляция клитора";"эротический массаж";1;;2017;3310
57739;160;NSN-0317-14;"Розовое виброяйцо BuLLiTT Single с пультом управления";"Мощное и абсолютно универсальное в использовании виброяичко, которое проведет отличную стимуляцию любой эрогенной зоны. Вы можете использовать его для наружного воздействия или для проникновения, в сольных играх или вместе с партнером. 10 режимов вибрации.";http://feed.p5s.ru/images/big/5/57739.jpg;http://feed.p5s.ru/images/big/5/57739-1.jpg;;;;;;;;;"2 шт., тип AAA";"пластиковая коробка";"анодированный пластик (ABS)";4.00;2.50;"Power Play";Женщинам;"Секс-товары для женщин";Виброяйцо;0;1;"вагинальная стимуляция";"стимуляция клитора";1;;2017;2250
57740;160;NSN-0318-14;"Вибромассажер с клиторальным стимулятором Thumper Power Vibe - 18,8 см.";"Мощные импульсивные вибрации соединенные в этом бесшумном вибромассажере, выведут на новый уровень ваш сексуальный опыт. Имеет 4 скорости, оснащен бесшумным мотором, по всей поверхности располагаются фактурные ребрышки.";http://feed.p5s.ru/images/big/5/57740.jpg;http://feed.p5s.ru/images/big/5/57740-1.jpg;;;;;;;;;;"пластиковая коробка";силикон;18.80;3.80;"Power Play";Женщинам;Вибраторы;"Со стимулятором клитора";0;1;"вагинальная стимуляция";"стимуляция клитора";1;;2017;3850
57741;160;NSN-0405-27;"Голубой фаллоимитатор на присоске Pleasures 8 Dildo - 24,7 см.";"Фаллоимитатор - копия мужского полового члена с мошонкой, снабжен присоской для удобства закрепления на поверхностях. Рабочая длина - 20,3 см.";http://feed.p5s.ru/images/big/5/57741.jpg;http://feed.p5s.ru/images/big/5/57741-1.jpg;;;;;;;;;;"картонная коробка";силикон;24.70;5.40;Colours;Женщинам;Фаллоимитаторы;Реалистичные;0;1;"вагинальная стимуляция";;0;;2017;4230
57741;160;NSN-0405-27;"Голубой фаллоимитатор на присоске Pleasures 8 Dildo - 24,7 см.";"Фаллоимитатор - копия мужского полового члена с мошонкой, снабжен присоской для удобства закрепления на поверхностях. Рабочая длина - 20,3 см.";http://feed.p5s.ru/images/big/5/57741.jpg;http://feed.p5s.ru/images/big/5/57741-1.jpg;;;;;;;;;;"картонная коробка";силикон;24.70;5.40;Colours;Женщинам;Фаллоимитаторы;Гиганты;0;1;"вагинальная стимуляция";;0;;2017;4230
57742;160;NSN-0435-19;"Набор стимуляторов для пары Jelly Rancher Couples Kit ";"Набор из трех предметов: фаллоимитатора, анальной пробки и эрекционного колечка с вибрацией.   Длина фаллоимитатора - 15 см., диаметр - 3 см. Длина пробки - 8,3 см., диаметр - 2,1 см. Диаметр эрекционного кольца - 4 см. Батарейки в комплекте.";http://feed.p5s.ru/images/big/5/57742.jpg;http://feed.p5s.ru/images/big/5/57742-1.jpg;;;;;;;;;"3 шт., тип LR44";"картонная коробка";"Термопластичный эластомер (TPE)";;;"Jelly Rancher";Женщинам;Вибраторы;Вибронаборы;0;1;"вагинальная стимуляция";"анальная стимуляция";1;;2017;2890
57743;160;NSN-0443-14;"Розовый многоскоростной вибромассажёр Jelly Rancher 6 Vibrating Massager - 19 см.";"Высококачественный вибратор из нежнейшего материала, с мощным вибратором и плавным регулятором скорости. Яркий, полупрозрачный, легко скользящий и быстро разогревающийся, с рельефной поверхностью и слегка расширяющимся основанием для более плотного массажа чувствительной зоны половых губ. Физиологическое действие вибратора основано на явлении резонанса с частотой мышечных сокращений тазовых органов при оргазме. Рабочая длина - 15,2 см. Диаметр основания - 5 см.";http://feed.p5s.ru/images/big/5/57743.jpg;http://feed.p5s.ru/images/big/5/57743-1.jpg;;;;;;;;;"2 шт., тип AA";блистер;"Термопластичный эластомер (TPE)";19.00;3.40;"Jelly Rancher";Женщинам;Вибраторы;Водонепроницаемые;0;1;"вагинальная стимуляция";;1;;2017;2160
57744;160;NSN-0443-25;"Фиолетовый вибратор Jelly Rancher 8 Vibrating Massager - 23,4 см.";"Высококачественный вибратор из нежнейшего материала, с мощным вибратором и плавным регулятором скорости. Яркий, полупрозрачный, легко скользящий и быстро разогревающийся, с рельефной поверхностью и слегка расширяющимся основанием для более плотного массажа чувствительной зоны половых губ. Физиологическое действие вибратора основано на явлении резонанса с частотой мышечных сокращений тазовых органов при оргазме. Рабочая длина - 20 см. Диаметр основания - 6,8 см.";http://feed.p5s.ru/images/big/5/57744.jpg;http://feed.p5s.ru/images/big/5/57744-1.jpg;;;;;;;;;"2 шт., тип AA";блистер;"Термопластичный эластомер (TPE)";23.40;4.50;"Jelly Rancher";Женщинам;Вибраторы;Реалистики;0;1;"вагинальная стимуляция";"стимуляция клитора";1;;2017;2300
57745;160;NSN-0455-11;"Прозрачный фаллоимитатор на присоске Jelly Rancher 5 Smooth Rider Dong - 15 см.";"Прозрачный, легко и быстро разогревающийся, с рельефной поверхностью и слегка расширяющимся основанием и мошонкой для более плотного массажа чувствительной зоны половых губ.";http://feed.p5s.ru/images/big/5/57745.jpg;http://feed.p5s.ru/images/big/5/57745-1.jpg;;;;;;;;;;блистер;"Термопластичный эластомер (TPE)";15.00;3.00;"Jelly Rancher";Женщинам;Фаллоимитаторы;Реалистичные;0;1;"вагинальная стимуляция";;0;;2017;1340
57746;160;NSN-0460-21;"Двусторонний прозрачный фаллоимитатор Jelly Rancher Double Dong Smooth - 29,7 см.";"Длинный двухголовый фаллоимитатор из прозрачного геля - секс-игрушка для настоящих ценителей экспериментов и необычных удовольствий. Проявите фантазию и воспользуйтесь новыми возможностями вместе со своей подружкой. Возможно, вы узнаете о себе нечто действительно новое!";http://feed.p5s.ru/images/big/5/57746.jpg;http://feed.p5s.ru/images/big/5/57746-1.jpg;;;;;;;;;;блистер;"Термопластичный эластомер (TPE)";29.70;4.00;"Jelly Rancher";Женщинам;Фаллоимитаторы;Двусторонние;0;1;"вагинальная стимуляция";;0;;2017;2810
57747;160;NSN-0477-14;"Розовый фаллоимитатор на присоске Firefly Smooth Glowing Dong 5 Pink - 14,5 см.";"Яркий, полупрозрачный, легко скользящий и быстро разогревающийся, с рельефной поверхностью и слегка расширяющимся основанием для более плотного массажа чувствительной зоны половых губ. Светится в темноте.";http://feed.p5s.ru/images/big/5/57747.jpg;http://feed.p5s.ru/images/big/5/57747-1.jpg;;;;;;;;;;блистер;"Термопластичный эластомер (TPE)";14.50;2.80;Firefly;Женщинам;Фаллоимитаторы;Реалистичные;0;1;"вагинальная стимуляция";"анальная стимуляция";0;;2017;1420
57748;160;NSN-0477-47;"Голубой фаллоимитатор на присоске Firefly Smooth Glowing Dong 8 Blue - 22,3 см.";"Полупрозрачный, легко скользящий и быстро разогревающийся, с рельефной поверхностью и слегка расширяющимся основанием фаллоимитатор, для более плотного массажа чувствительной зоны половых губ. Светится в темноте.";http://feed.p5s.ru/images/big/5/57748.jpg;http://feed.p5s.ru/images/big/5/57748-1.jpg;;;;;;;;;;блистер;"Термопластичный эластомер (TPE)";22.30;4.30;Firefly;Женщинам;Фаллоимитаторы;Реалистичные;0;1;"вагинальная стимуляция";;0;;2017;3530
57749;160;NSN-0509-19;"Чёрная анальная пробка с неоново-жёлтым хвостом Unicorn Tails Yellow - 9,9 см.";"Анальная пробка для возбуждающего и расслабляющего массажа интимных зон. Обтекаемая коническая форма,увеличенное основание предотвращает проникновение «игрушки» целиком внутрь,в основание вмонтирован ярко желтый конский хвост.";http://feed.p5s.ru/images/big/5/57749.jpg;http://feed.p5s.ru/images/big/5/57749-1.jpg;;;;;;;;;;"картонная коробка";силикон;9.90;2.70;"Unicorn Tails";Женщинам;"Анальные игрушки";"Анальные пробки";0;1;"анальная стимуляция";"садомазохистская атрибутика";0;;2017;2160
57749;160;NSN-0509-19;"Чёрная анальная пробка с неоново-жёлтым хвостом Unicorn Tails Yellow - 9,9 см.";"Анальная пробка для возбуждающего и расслабляющего массажа интимных зон. Обтекаемая коническая форма,увеличенное основание предотвращает проникновение «игрушки» целиком внутрь,в основание вмонтирован ярко желтый конский хвост.";http://feed.p5s.ru/images/big/5/57749.jpg;http://feed.p5s.ru/images/big/5/57749-1.jpg;;;;;;;;;;"картонная коробка";силикон;9.90;2.70;"Unicorn Tails";Парам;"BDSM, садо-мазо товары";"Другие BDSM товары";0;1;"анальная стимуляция";"садомазохистская атрибутика";0;;2017;2160
57750;160;NSN-0551-14;"Розовая анальная пробка для ношения INYA Spades Small - 10,2 см.";"Анальная пробка для возбуждающего и расслабляющего массажа интимных зон. Обтекаемая коническая форма,увеличенное основание предотвращает проникновение игрушки целиком внутрь.";http://feed.p5s.ru/images/big/5/57750.jpg;http://feed.p5s.ru/images/big/5/57750-1.jpg;;;;;;;;;;"картонная коробка";силикон;10.20;2.80;INYA;Женщинам;"Анальные игрушки";"Анальные пробки";0;1;"анальная стимуляция";;0;;2017;960
57751;160;NSN-0551-25;"Фиолетовая анальная пробка для ношения INYA Spades Medium - 10,2 см.";"Анальная пробка для возбуждающего и расслабляющего массажа интимных зон. Обтекаемая коническая форма,увеличенное основание предотвращает проникновение игрушки целиком внутрь.";http://feed.p5s.ru/images/big/5/57751.jpg;http://feed.p5s.ru/images/big/5/57751-1.jpg;;;;;;;;;;"картонная коробка";силикон;10.20;3.60;INYA;Женщинам;"Анальные игрушки";"Анальные пробки";0;1;"анальная стимуляция";;0;;2017;1230
57752;160;NSN-1205-03;"Чёрные ленты для связывания Strap-Ease Bondage Straps 4 Foot - 2 х 122 см.";"Чёрные ленты для связывания Strap-Ease Bondage Straps 4 Foot. В упаковке две ленты с коннекторами по 122 см. каждая. Длина каждой ленты - 122 см., ширина - 1,8 см.";http://feed.p5s.ru/images/big/5/57752.jpg;http://feed.p5s.ru/images/big/5/57752-1.jpg;;;;;;;;;;"картонная коробка";полиэстер;;;"Strapease Bondage";Парам;"BDSM, садо-мазо товары";"Другие BDSM товары";0;1;"садомазохистская атрибутика";"эротические игры";;;2017;1300
57753;160;NSN-1205-04;"Розовые ленты для связывания Strap-Ease Bondage Straps 4 Foot - 2 х 122 см.";"Розовые ленты для связывания Strap-Ease Bondage Straps 4 Foot. В упаковке две ленты с коннекторами по 122 см. каждая. Длина каждой ленты - 122 см., ширина - 1,8 см.";http://feed.p5s.ru/images/big/5/57753.jpg;http://feed.p5s.ru/images/big/5/57753-1.jpg;;;;;;;;;;"картонная коробка";полиэстер;;;"Strapease Bondage";Парам;"BDSM, садо-мазо товары";"Другие BDSM товары";0;1;"садомазохистская атрибутика";"эротические игры";;;2017;1300
57754;160;NSN-1205-13;"Чёрные ленты для связывания Strap-Ease Bondage Straps 8 Foot - 2 х 244 см.";"Чёрные ленты для связывания Strap-Ease Bondage Straps 8 Foot. В упаковке две ленты с коннекторами по 244 см. каждая. Длина каждой ленты - 244 см., ширина - 1,8 см.";http://feed.p5s.ru/images/big/5/57754.jpg;http://feed.p5s.ru/images/big/5/57754-1.jpg;;;;;;;;;;"картонная коробка";полиэстер;;;"Strapease Bondage";Парам;"BDSM, садо-мазо товары";"Другие BDSM товары";0;1;"садомазохистская атрибутика";"эротические игры";;;2017;1630
57755;160;NSN-1205-14;"Розовые ленты для связывания Strap-Ease Bondage Straps 8 Foot - 2 х 244 см.";"Чёрные ленты для связывания Strap-Ease Bondage Straps 8 Foot. В упаковке две ленты с коннекторами по 244 см. каждая. Длина каждой ленты - 244 см., ширина - 1,8 см.";http://feed.p5s.ru/images/big/5/57755.jpg;http://feed.p5s.ru/images/big/5/57755-1.jpg;;;;;;;;;;"картонная коробка";полиэстер;;;"Strapease Bondage";Парам;"BDSM, садо-мазо товары";"Другие BDSM товары";0;1;"садомазохистская атрибутика";"эротические игры";;;2017;1630
57756;160;NSN-1232-13;"Ремешки для подвешивания на двери Sinful Door Restraint Straps";"Ремешки для подвешивания на двери Sinful Door Restraint Straps. Отлично подходят к наручникам из этой же серии (Sinful). В упаковке 2 ремешка.";http://feed.p5s.ru/images/big/5/57756.jpg;http://feed.p5s.ru/images/big/5/57756-1.jpg;;;;;;;;;;"картонная коробка";неопрен;20.00;;Sinful;Парам;"BDSM, садо-мазо товары";"Наручники, ошейники";0;1;"дополнительный аксессуар";"садомазохистская атрибутика";;;2017;1630
57756;160;NSN-1232-13;"Ремешки для подвешивания на двери Sinful Door Restraint Straps";"Ремешки для подвешивания на двери Sinful Door Restraint Straps. Отлично подходят к наручникам из этой же серии (Sinful). В упаковке 2 ремешка.";http://feed.p5s.ru/images/big/5/57756.jpg;http://feed.p5s.ru/images/big/5/57756-1.jpg;;;;;;;;;;"картонная коробка";неопрен;20.00;;Sinful;Парам;"BDSM, садо-мазо товары";"Другие BDSM товары";0;1;"дополнительный аксессуар";"садомазохистская атрибутика";;;2017;1630
57757;160;NSN-1233-13;"Слинг для поддержки ног во время близости Sinful Leg Up Sling";"Слинг для поддержки ног во время близости Sinful Leg Up Sling.";http://feed.p5s.ru/images/big/5/57757.jpg;http://feed.p5s.ru/images/big/5/57757-1.jpg;;;;;;;;;;"картонная коробка";винил;;;Sinful;Парам;"BDSM, садо-мазо товары";"Другие BDSM товары";0;1;"дополнительный аксессуар";;;;2017;3530
57757;160;NSN-1233-13;"Слинг для поддержки ног во время близости Sinful Leg Up Sling";"Слинг для поддержки ног во время близости Sinful Leg Up Sling.";http://feed.p5s.ru/images/big/5/57757.jpg;http://feed.p5s.ru/images/big/5/57757-1.jpg;;;;;;;;;;"картонная коробка";винил;;;Sinful;"Все для секса";"Секс-мебель и качели";Секс-мебель;0;1;"дополнительный аксессуар";;;;2017;3530
57758;160;NSN-1105-13;"Мужской набор стимуляторов Renegade Men s Pleasure Kit  #1";"Мужской набор стимуляторов Renegade Men s Pleasure Kit  #1: тройное эрекционное кольцо, анальная пробка и мастурбатор. Эрекционные кольца супер эластичные, связаны вместе. Изготовлены из прочного, гладкого медицинского силикона. Мастурбатор - имитация ануса, с удобным зажимом держателем, сделан из TPR. Анальная пробка из гладкого медицинского силикона. Длина колец - 16,8 см. Длина мастурбатора - 12,7 см. Длина пробки - 10,2 см., диаметр - 2,8 см.";http://feed.p5s.ru/images/big/5/57758.jpg;http://feed.p5s.ru/images/big/5/57758-1.jpg;;;;;;;;;;"картонная коробка";силикон;;;Renegade;Мужчинам;Мастурбаторы;;0;1;"анальная стимуляция";фаллостимуляция;0;;2017;2830
57758;160;NSN-1105-13;"Мужской набор стимуляторов Renegade Men s Pleasure Kit  #1";"Мужской набор стимуляторов Renegade Men s Pleasure Kit  #1: тройное эрекционное кольцо, анальная пробка и мастурбатор. Эрекционные кольца супер эластичные, связаны вместе. Изготовлены из прочного, гладкого медицинского силикона. Мастурбатор - имитация ануса, с удобным зажимом держателем, сделан из TPR. Анальная пробка из гладкого медицинского силикона. Длина колец - 16,8 см. Длина мастурбатора - 12,7 см. Длина пробки - 10,2 см., диаметр - 2,8 см.";http://feed.p5s.ru/images/big/5/57758.jpg;http://feed.p5s.ru/images/big/5/57758-1.jpg;;;;;;;;;;"картонная коробка";силикон;;;Renegade;Женщинам;"Анальные игрушки";"Анальные пробки";0;1;"анальная стимуляция";фаллостимуляция;0;;2017;2830
57758;160;NSN-1105-13;"Мужской набор стимуляторов Renegade Men s Pleasure Kit  #1";"Мужской набор стимуляторов Renegade Men s Pleasure Kit  #1: тройное эрекционное кольцо, анальная пробка и мастурбатор. Эрекционные кольца супер эластичные, связаны вместе. Изготовлены из прочного, гладкого медицинского силикона. Мастурбатор - имитация ануса, с удобным зажимом держателем, сделан из TPR. Анальная пробка из гладкого медицинского силикона. Длина колец - 16,8 см. Длина мастурбатора - 12,7 см. Длина пробки - 10,2 см., диаметр - 2,8 см.";http://feed.p5s.ru/images/big/5/57758.jpg;http://feed.p5s.ru/images/big/5/57758-1.jpg;;;;;;;;;;"картонная коробка";силикон;;;Renegade;"Все для секса";"Приятные мелочи";"Эротические наборы";0;1;"анальная стимуляция";фаллостимуляция;0;;2017;2830
57759;160;NSN-1105-23;"Мужской набор стимуляторов Renegade Men s Pleasure Kit  #2";"Мужской набор стимуляторов Renegade Men s Pleasure Kit  #2: фаллоимитатор на присоске, эрекционное кольцо со съемной вибропулей  и анальная пробка. Длина фаллоимитатора - 15 см., диаметр - 3,2 см. Длина анальной пробки - 8,4 см., диаметр - 2,5 см. Длина эрекционного кольца - 9,4 см., внутренний диаметр - 2,5 см. Батарейки в комплекте.";http://feed.p5s.ru/images/big/5/57759.jpg;http://feed.p5s.ru/images/big/5/57759-1.jpg;;;;;;;;;"3 шт., тип LR44";"картонная коробка";силикон;;;Renegade;Женщинам;Вибраторы;Вибронаборы;0;1;"анальная стимуляция";"усиление эрекции";1;;2017;2900
57759;160;NSN-1105-23;"Мужской набор стимуляторов Renegade Men s Pleasure Kit  #2";"Мужской набор стимуляторов Renegade Men s Pleasure Kit  #2: фаллоимитатор на присоске, эрекционное кольцо со съемной вибропулей  и анальная пробка. Длина фаллоимитатора - 15 см., диаметр - 3,2 см. Длина анальной пробки - 8,4 см., диаметр - 2,5 см. Длина эрекционного кольца - 9,4 см., внутренний диаметр - 2,5 см. Батарейки в комплекте.";http://feed.p5s.ru/images/big/5/57759.jpg;http://feed.p5s.ru/images/big/5/57759-1.jpg;;;;;;;;;"3 шт., тип LR44";"картонная коробка";силикон;;;Renegade;Женщинам;"Анальные игрушки";"Анальные стимуляторы без вибрации ";0;1;"анальная стимуляция";"усиление эрекции";1;;2017;2900
57760;160;NSN-1115-31;"Фактурная насадка с закрытой головкой и подхватом Renegade Power Extension - 21 см.";"Оригинальная насадка из эластичного материала с упругими выпуклостями в форме бугорков по периметру.";http://feed.p5s.ru/images/big/5/57760.jpg;http://feed.p5s.ru/images/big/5/57760-1.jpg;;;;;;;;;;"картонная коробка";"Термопластичный эластомер (TPE)";21.00;4.40;Renegade;Мужчинам;"Насадки и удлинители";;0;1;"удлинение фаллоса";"вагинальная стимуляция";0;;2017;2560
57761;160;NSN-1115-41;"Прозрачная насадка с закрытой головкой и вибрацией Renegade Manaconda - 18,3 см.";"Оригинальная насадка из эластичного материала с упругими выпуклостями в форме бугорков по периметру.  Батарейки в комплекте.";http://feed.p5s.ru/images/big/5/57761.jpg;http://feed.p5s.ru/images/big/5/57761-1.jpg;;;;;;;;;"3 шт., тип LR44";"картонная коробка";"Термопластичный эластомер (TPE)";18.30;3.80;Renegade;Мужчинам;"Насадки и удлинители";;0;1;"удлинение фаллоса";"стимуляция клитора";1;;2017;2390
57762;160;NSN-1116-83;"Тройное эрекционное кольцо Renegade Triad Cock Ring";"Насадка на пенис тройного действия: кольцо для члена, для мошонки и для головки. Предназначено для поддержания пениса и яичек в твердом и упругом состоянии за счет плотного обхвата и предотвращения быстрого оттока крови от полового члена. Благодаря этому также обеспечивается более долгая и стабильная эрекция. Ширина - 5,6 см.";http://feed.p5s.ru/images/big/5/57762.jpg;http://feed.p5s.ru/images/big/5/57762-1.jpg;;;;;;;;;;блистер;силикон;16.80;;Renegade;Мужчинам;"Эрекционные кольца";;0;1;"усиление эрекции";;0;;2017;860
57763;160;NSN-1117-53;"Анальные бусы Renegade Soft Balls - 31,8 см.";"Применяются для расслабления мышц ануса перед проникновением и так же можно использовать для массажа и стимуляции пениса партнера при вагинальном контакте.";http://feed.p5s.ru/images/big/5/57763.jpg;http://feed.p5s.ru/images/big/5/57763-1.jpg;;;;;;;;;;"картонная коробка";силикон;31.80;3.80;Renegade;Женщинам;"Анальные игрушки";"Анальные шарики, цепочки";0;1;"анальная стимуляция";;0;;2017;2560
57764;160;NSN-1155-33;"Чёрный гладкий фаллоимитатор Renegade 7 Smooth Dong - 19,8 см.";"Гладкая поверхность и упругая головка реалистичной формы сделают проникновения нежными и комфортными, а также обеспечит дополнительную стимуляцию стенок вагины/ануса. Вы можете прикрепить фаллос к любой плоской поверхности при помощи мощной присоски, благодаря чему сможете испытать удовольствие в различных позах.";http://feed.p5s.ru/images/big/5/57764.jpg;http://feed.p5s.ru/images/big/5/57764-1.jpg;;;;;;;;;;"картонная коробка";"Термопластичный эластомер (TPE)";19.80;3.80;Renegade;Женщинам;Фаллоимитаторы;Реалистичные;0;1;"вагинальная стимуляция";"анальная стимуляция";0;;2017;2560
57764;160;NSN-1155-33;"Чёрный гладкий фаллоимитатор Renegade 7 Smooth Dong - 19,8 см.";"Гладкая поверхность и упругая головка реалистичной формы сделают проникновения нежными и комфортными, а также обеспечит дополнительную стимуляцию стенок вагины/ануса. Вы можете прикрепить фаллос к любой плоской поверхности при помощи мощной присоски, благодаря чему сможете испытать удовольствие в различных позах.";http://feed.p5s.ru/images/big/5/57764.jpg;http://feed.p5s.ru/images/big/5/57764-1.jpg;;;;;;;;;;"картонная коробка";"Термопластичный эластомер (TPE)";19.80;3.80;Renegade;Женщинам;"Анальные игрушки";"Анальные фаллоимитаторы";0;1;"вагинальная стимуляция";"анальная стимуляция";0;;2017;2560
